{
	"roots": {
		"commands": "commands",
		"handlers": "handlers",
		"commandInteractions": "commandInteractions",
		"componentInteractions": "componentInteractions",
		"legacyCommands": "legacyCommands"
	}
}